^C:\USERS\G1AGO1\DESKTOP\PROJECTS\UE4\COPYCONSTRUCTOR\MATRIX.CPP|C:\USERS\G1AGO1\DESKTOP\PROJECTS\UE4\COPYCONSTRUCTOR\SOURCE.CPP
C:\USERS\G1AGO1\DESKTOP\PROJECTS\UE4\COPYCONSTRUCTOR\DEBUG\VC142.PDB
C:\USERS\G1AGO1\DESKTOP\PROJECTS\UE4\COPYCONSTRUCTOR\DEBUG\VC142.IDB
C:\USERS\G1AGO1\DESKTOP\PROJECTS\UE4\COPYCONSTRUCTOR\DEBUG\SOURCE.OBJ
C:\USERS\G1AGO1\DESKTOP\PROJECTS\UE4\COPYCONSTRUCTOR\DEBUG\MATRIX.OBJ
^C:\USERS\G1AGO1\DESKTOP\PROJECTS\UE4\COPYCONSTRUCTOR\MATRIX.CPP
C:\USERS\G1AGO1\DESKTOP\PROJECTS\UE4\COPYCONSTRUCTOR\DEBUG\VC142.PDB
^C:\USERS\G1AGO1\DESKTOP\PROJECTS\UE4\COPYCONSTRUCTOR\SOURCE.CPP
C:\USERS\G1AGO1\DESKTOP\PROJECTS\UE4\COPYCONSTRUCTOR\DEBUG\VC142.PDB
