^C:\USERS\G1AGO1\DESKTOP\PROJECTS\UE4\COPYCONSTRUCTOR\DEBUG\MATRIX.OBJ|C:\USERS\G1AGO1\DESKTOP\PROJECTS\UE4\COPYCONSTRUCTOR\DEBUG\SOURCE.OBJ
C:\USERS\G1AGO1\DESKTOP\PROJECTS\UE4\COPYCONSTRUCTOR\DEBUG\COPYCONSTRUCTOR.ILK
C:\USERS\G1AGO1\DESKTOP\PROJECTS\UE4\COPYCONSTRUCTOR\DEBUG\COPYCONSTRUCTOR.EXE
C:\USERS\G1AGO1\DESKTOP\PROJECTS\UE4\COPYCONSTRUCTOR\DEBUG\COPYCONSTRUCTOR.PDB
